<?xml version="1.0" encoding="UTF-8"?>
<svg width="52px" height="52px" viewBox="0 0 52 52" version="1.1" xmlns="http://www.w3.org/2000/svg" xmlns:xlink="http://www.w3.org/1999/xlink">
    <!-- Generator: Sketch 42 (36781) - http://www.bohemiancoding.com/sketch -->
    <title>Group</title>
    <desc>Created with Sketch.</desc>
    <defs></defs>
    <g id="Catalogue" stroke="none" stroke-width="1" fill="none" fill-rule="evenodd">
        <g id="Tablet-Portrait" transform="translate(-646.000000, -50.000000)" fill="#EEC03E">
            <g id="Group" transform="translate(646.000000, 50.000000)">
                <path d="M34.6258367,29.0955752 C34.3993678,29.3239088 34.1050939,29.5942814 33.7640344,29.9100835 C32.3499599,31.2122797 30.261903,33.1365873 29.1739708,35.5540072 C28.9864898,35.0569961 28.7664624,34.5672741 28.5216862,34.0889094 C29.75862,32.1445993 31.4071305,30.4955802 32.3408062,29.5622435 L32.7830647,29.1187985 C36.0444881,25.8241506 38.4378372,23.4043575 38.6073499,18.4125489 L40.1843261,18.4023782 C40.0297305,22.8046217 38.0852509,25.602428 34.6258367,29.0955752 L34.6258367,29.0955752 Z M18.5807862,30.0063667 C18.2348109,29.6941244 17.9368077,29.4266334 17.7066095,29.2008426 C14.203461,25.7519382 12.2244008,22.9792197 12.0142052,18.5795189 L13.5250714,18.5701957 C13.7579818,23.5601396 16.1826908,25.9489119 19.4834411,29.2027072 L19.6227805,29.3373003 C19.7314381,29.4425676 19.8528092,29.5622435 19.9865547,29.6924293 C21.0005793,30.6776368 22.6338337,32.2639362 23.8673773,34.1290839 C23.6305681,34.6074486 23.4186773,35.0966621 23.2389939,35.5926561 C22.1215665,33.1893057 20.0101169,31.2907641 18.5807862,30.0063667 L18.5807862,30.0063667 Z M21.5030148,27.5489418 C21.9061159,27.934244 22.3288805,28.3373451 22.7660536,28.7709585 C23.2966282,29.2927184 24.3069236,30.3389505 25.33078,31.6675907 C25.0814269,32.0289916 24.8376677,32.4041231 24.6042488,32.790273 C23.3630772,31.0653122 21.8950976,29.6392023 20.9392158,28.710273 C20.80903,28.583647 20.687659,28.4677004 20.5823916,28.362433 L20.4432217,28.2268229 C17.1553544,24.9881142 15.1105232,22.9705746 14.8954117,18.5617201 L16.4727269,18.5518883 C16.6891946,22.9480294 18.7301269,24.8999676 21.5030148,27.5489418 L21.5030148,27.5489418 Z M25.4955463,38.110597 L24.0338387,38.1044946 C24.1211377,37.2693057 24.3654055,36.4217425 24.7084991,35.5919781 C25.1044806,36.4058083 25.3907875,37.252524 25.4955463,38.110597 L25.4955463,38.110597 Z M27.70294,35.5668902 C28.0645105,36.4095376 28.3223393,37.2720179 28.4160798,38.1228019 L26.945388,38.11653 C27.0384505,37.2535411 27.3152646,36.39479 27.70294,35.5668902 L27.70294,35.5668902 Z M26.1991933,35.5690939 C25.9837427,35.0571656 25.7282872,34.5591375 25.4455401,34.0777216 C25.679298,33.6578387 25.9301767,33.2488047 26.1895311,32.8545183 C26.4495635,33.2386339 26.7011203,33.6369887 26.9365734,34.0463617 C26.6584031,34.5381179 26.4080329,35.0466559 26.1991933,35.5690939 L26.1991933,35.5690939 Z M29.5592731,28.7263767 C29.9677986,28.3159865 30.3622545,27.9289892 30.7385726,27.557926 C33.4868812,24.8553858 35.5057769,22.8649682 35.6668139,18.4313648 L37.2383657,18.4211941 C37.0778372,22.8324218 35.0558903,24.8760663 31.809045,28.1554581 L31.3720414,28.5943263 C30.4280254,29.5386813 28.9763191,30.9907267 27.7571841,32.743996 C27.5241042,32.3700511 27.2811926,32.006955 27.0328565,31.6567419 C28.0394227,30.3152187 29.035818,29.2559342 29.5592731,28.7263767 L29.5592731,28.7263767 Z M42.2289877,18.3891562 L42.2222072,17.0200025 L33.637578,17.0752636 L33.6465621,18.4444173 L34.2979993,18.4401795 C34.1457769,22.2854045 32.4659065,23.9388309 29.778792,26.5828892 C29.3987446,26.955817 28.9992033,27.3482388 28.5889827,27.7630363 C27.9744993,28.3839611 27.0821847,29.3423856 26.1747835,30.5142266 C25.2528042,29.354082 24.3493018,28.4068453 23.7275294,27.793379 C23.2834062,27.3589181 22.8570819,26.9503926 22.4485564,26.5579708 C19.7373711,23.9691736 18.0439397,22.3477851 17.8434062,18.5434127 L18.5309495,18.5390054 L18.5219653,17.1698517 L9.93750567,17.2232482 L9.9446252,18.5925714 L10.6457295,18.588164 C10.8950826,23.9696822 13.6713608,27.1466883 16.7451337,30.1758793 C16.9966905,30.4238764 17.3070682,30.7039113 17.6657569,31.0249682 C19.4234336,32.6022834 22.3000633,35.188877 22.6011178,38.3121476 L22.5965409,39.4677153 L29.8447324,39.4960239 L29.8516824,38.2009473 C30.1459564,35.1027646 32.9661384,32.5061698 34.690082,30.9161411 C35.0450415,30.5915244 35.3501643,30.3096248 35.5981613,30.0580681 C38.636167,26.9890415 41.3736268,23.7788109 41.5546663,18.393394 L42.2289877,18.3891562 Z" id="Fill-38"></path>
                <path d="M26.0823313,1.70819594 C12.893569,1.70819594 2.16307915,12.4397029 2.16307915,25.6284652 C2.16307915,38.8182445 12.893569,49.5514466 26.0823313,49.5514466 C39.2731278,49.5514466 50.0034481,38.8182445 50.0034481,25.6284652 C50.0034481,12.4397029 39.2731278,1.70819594 26.0823313,1.70819594 M26.0823313,51.1918205 C11.9890495,51.1918205 0.521688147,39.7244592 0.521688147,25.6284652 C0.521688147,11.5351833 11.9890495,0.0659573726 26.0823313,0.0659573726 C40.1793424,0.0659573726 51.6450086,11.5351833 51.6450086,25.6284652 C51.6450086,39.7244592 40.1793424,51.1918205 26.0823313,51.1918205" id="Fill-40"></path>
            </g>
        </g>
    </g>
</svg>